{
	"Выбор действия": {
		"items": {
			"Стол заказов": {
				"items": {
					"Музыка": {
						"items": {
							"Рок": {
								"actions": {
									"get_message": {
										"message": {
											"chat_id": null,
											"text": null
										}
									},
									"send_message": {"message": null}
								}
							},
							"Поп": null,
							"Классика": null
						}
					},
					"Спорт": null
				}
			},
			"Оставить коментарий/жалобу": {
				"send_message": {"message": null}
			}
		}
	}
}
